{
    "results": [
        {
            "adult": false,
            "backdrop_path": "/fqv8v6AycXKsivp1T5yKtLbGXce.jpg",
            "genre_ids": [
                878,
                12,
                28
            ],
            "id": 653346,
            "original_language": "en",
            "original_title": "Kingdom of the Planet of the Apes",
            "overview": "Several generations in the future following Caesar's reign, apes are now the dominant species and live harmoniously while humans have been reduced to living in the shadows. As a new tyrannical ape leader builds his empire, one young ape undertakes a harrowing journey that will cause him to question all that he has known about the past and to make choices that will define a future for apes and humans alike.",
            "popularity": 6097.733,
            "poster_path": "/gKkl37BQuKTanygYQG1pyYgLVgf.jpg",
            "release_date": "2024-05-08",
            "title": "Kingdom of the Planet of the Apes",
            "video": false,
            "vote_average": 6.9,
            "vote_count": 781
        }
    ],
    "page": 1,
    "total_results": 655,
    "dates": {
        "maximum": "2020-05-26",
        "minimum": "2020-04-08"
    },
    "total_pages": 33
}
